<svg xmlns="http://www.w3.org/2000/svg" viewBox="0 0 4 4">
    <polygon fill="darkgray" points="0,1 2,0 4,1 2,2"/>
    <polygon fill="lightgray" points="0,1 2,2 2,4 0,3"/>
    <polygon fill="gray" points="4,1 2,2 2,4 4,3"/>
<svg>
